<svg width="70" height="71" viewBox="0 0 70 71" fill="none" xmlns="http://www.w3.org/2000/svg">
<path fill-rule="evenodd" clip-rule="evenodd" d="M44.5984 47.8488C45.4983 45.8479 45.999 43.6287 45.999 41.2925C45.999 37.9115 44.9503 34.7755 43.1605 32.192C44.3306 29.2505 45.4759 26.2911 46.4291 23.7982C51.0888 28.176 53.999 34.3944 53.999 41.2925C53.999 45.8586 52.7239 50.1269 50.5102 53.7606L44.5984 47.8488ZM29.9995 25.293C32.2757 25.293 34.4408 25.7683 36.4011 26.6251C38.8556 24.7574 41.3176 22.9184 43.397 21.3776C39.5708 18.7985 34.961 17.293 29.9995 17.293C16.7449 17.293 6 28.0379 6 41.2925C6 46.0836 7.40391 50.5467 9.82279 54.2931L15.6795 48.4363C14.6047 46.2861 14 43.8599 14 41.2925C14 32.4562 21.1632 25.293 29.9995 25.293ZM26.4583 45.3903C28.393 46.9905 31.2585 46.7193 32.8587 44.7847C34.4589 42.85 41.3075 27.4372 41.3075 27.4372C41.3075 27.4372 27.4528 37.0552 25.8526 38.9898C24.2524 40.9245 24.5236 43.7901 26.4583 45.3903Z" fill="#F3AE34"/>
</svg>
