<svg width="70" height="71" viewBox="0 0 70 71" fill="none" xmlns="http://www.w3.org/2000/svg">
<path fill-rule="evenodd" clip-rule="evenodd" d="M3 18.4131L19.6087 23.488V28.6657H34.5777L36.1899 32.6962L60.1795 30.5806L64.1663 39.7184L56.8337 42.9175L55.1487 39.0553L49.639 39.5412L42.5841 49.8179H11.6087V35.626L3 32.9956V18.4131ZM66.0709 46.881L62.1553 42.8743L60.9998 48.1851C60.7479 49.3427 61.1266 50.5472 61.9955 51.3524L62.0673 51.4188C63.6695 52.9035 66.2743 52.1773 66.8773 50.0779C67.2028 48.9448 66.8949 47.7241 66.0709 46.881Z" fill="#F3AE34"/>
</svg>
