<svg width="70" height="71" viewBox="0 0 70 71" fill="none" xmlns="http://www.w3.org/2000/svg">
<path fill-rule="evenodd" clip-rule="evenodd" d="M11 16.9787L21.4847 9.29297L25.7662 15.1336C28.6084 13.9479 31.7275 13.2931 34.9995 13.2931C38.2709 13.2931 41.3894 13.9477 44.2312 15.133L50.071 9.29315L59.2634 18.4855L54.4786 23.2703C56.8975 26.6246 58.4713 30.6288 58.8882 34.9709C56.2849 34.2142 53.262 33.3496 50.2773 32.5271C48.2491 26.0182 42.1761 21.2931 34.9995 21.2931C26.1632 21.2931 19 28.4564 19 37.2927C19 46.1289 26.1632 53.2922 34.9995 53.2922C42.2817 53.2922 48.4276 48.4271 50.3642 41.7698C53.33 40.9519 56.3291 40.0939 58.9127 39.3428C57.8725 51.6377 47.5635 61.2922 34.9995 61.2922C21.7449 61.2922 11 50.5472 11 37.2927C11 32.0302 12.6938 27.1633 15.5659 23.2074L11 16.9787ZM35.546 41.3852C33.0353 41.3852 31 39.3499 31 36.8392C31 36.2926 31.0965 35.7686 31.2733 35.2831C31.7612 31.7102 33.5 25.7929 33.5 25.7929C33.5 25.7929 36.349 29.6143 38.193 32.7093C43.5551 33.8321 54.2984 36.8392 54.2984 36.8392C54.2984 36.8392 38.0567 41.3852 35.546 41.3852Z" fill="#F3AE34"/>
</svg>
