<svg width="100" height="100" viewBox="0 0 100 100" fill="none" xmlns="http://www.w3.org/2000/svg">
<path fill-rule="evenodd" clip-rule="evenodd" d="M81.9999 37.38L91.9999 6.88L61.4999 16.88L69.1715 24.5516L49.7499 43.9731L30.3284 24.5516L37.4999 17.38L6.99994 7.38L16.9999 37.88L24.6715 30.2084L44.0931 49.63L24.6715 69.0516L17.4999 61.88L7.49994 92.38L37.9999 82.38L30.3284 74.7084L49.7499 55.2869L69.1715 74.7084L61.9999 81.88L92.4999 91.88L82.4999 61.38L74.8284 69.0516L55.4068 49.63L74.8284 30.2084L81.9999 37.38Z" fill="#F3AE34"/>
</svg>
