<svg width="70" height="71" viewBox="0 0 70 71" fill="none" xmlns="http://www.w3.org/2000/svg">
<g clip-path="url(#clip0)">
<path d="M60.8267 11.908L18.308 27.191L28.865 39.0204L9.67786 56.387L47.2889 42.207L38.2389 32.0662L60.8267 11.908Z" fill="#F3AE34"/>
</g>
<defs>
<clipPath id="clip0">
<rect width="70" height="70" fill="white" transform="translate(0 0.413086)"/>
</clipPath>
</defs>
</svg>
